{
	"appName": {
		"message": "不要擋住 Imgur 啦！"
	},
	"appDesc": {
		"message": "自動挑選最佳的 web proxy，並利用其取得 imgur 的圖片！"
	},
	"popAutoSelect": {
		"message": "自動挑選"
	},
	"popRemeasure": {
		"message": "重新測量時間"
	},
	"popMeasuring": {
		"message": "測量中..."
	},
	"popUnavailable": {
		"message": "無法使用"
	}
}
